wave.vcd
$date
  Sat Mar 12 14:53:11 2022
$end
$version
  GHDL v0
$end
$timescale
  1 fs
$end
$scope module standard $end
$upscope $end
$scope module std_logic_1164 $end
$upscope $end
$scope module numeric_std $end
$upscope $end
$scope module mytypes $end
$upscope $end
$scope module tb $end
$var reg 1 ! clock $end
$var reg 1 " reset $end
$scope module uut $end
$var reg 1 # clock $end
$var reg 1 $ reset $end
$var reg 1 % br $end
$var reg 24 & ofst[23:0] $end
$var reg 8 ' prog_c[7:0] $end
$comment instr_class is not handled $end
$comment dp_subclass is not handled $end
$comment dp_operand_src is not handled $end
$comment load_store is not handled $end
$comment dt_offset_sign is not handled $end
$comment cond_cd is not handled $end
$var reg 4 ( rad2_port[3:0] $end
$var reg 1 ) alu_c_out $end
$var reg 1 * c $end
$var reg 1 + v $end
$var reg 1 , z $end
$var reg 1 - n $end
$var reg 1 . p_cond $end
$comment operation_instr is not handled $end
$comment operation_alu is not handled $end
$var reg 1 / pw $end
$var reg 1 0 iord $end
$var reg 1 1 mw $end
$var reg 4 2 mw_vector[3:0] $end
$var reg 2 3 rscrc[1:0] $end
$var reg 1 4 m2r $end
$var reg 1 5 rw $end
$var reg 1 6 asrc1 $end
$var reg 2 7 asrc2[1:0] $end
$var reg 1 8 fset $end
$var reg 1 9 iw $end
$var reg 1 : dw $end
$var reg 1 ; aw $end
$var reg 1 < bw $end
$var reg 1 = rew $end
$var reg 1 > xdpw $end
$var reg 1 ? ddpw $end
$var reg 32 @ d_in[31:0] $end
$var reg 32 A a_in[31:0] $end
$var reg 32 B b_in[31:0] $end
$var reg 32 C re_in[31:0] $end
$var reg 32 D xdp_in[31:0] $end
$var reg 32 E ddp_in[31:0] $end
$var reg 32 F i_out[31:0] $end
$var reg 32 G d_out[31:0] $end
$var reg 32 H a_out[31:0] $end
$var reg 32 I b_out[31:0] $end
$var reg 32 J re_out[31:0] $end
$var reg 32 K ddp_out[31:0] $end
$var reg 32 L xdp_out[31:0] $end
$var reg 1 M ddp_mux $end
$var reg 32 N p_out[31:0] $end
$var reg 1 O set_cond $end
$var reg 32 P rd_mem[31:0] $end
$var reg 16 Q ad_mem[15:0] $end
$var reg 32 R wd_mem[31:0] $end
$var reg 32 S wd_ref[31:0] $end
$var reg 32 T alu_op_2[31:0] $end
$var reg 32 U alu_op_1[31:0] $end
$var reg 32 V alu_out[31:0] $end
$var reg 32 W rotated_out[31:0] $end
$var reg 1 X rotated_carry $end
$var reg 32 Y shifted_out[31:0] $end
$var reg 1 Z shifter_carry $end
$scope module fsm_label $end
$var reg 1 [ reset $end
$var reg 1 \ clock $end
$var reg 32 ] instruction[31:0] $end
$comment dp_subclass is not handled $end
$comment instr_class is not handled $end
$comment load_store is not handled $end
$comment dp_operand_src is not handled $end
$comment dt_offset_sign is not handled $end
$var reg 1 ^ p_cond $end
$var reg 1 _ set_cond $end
$comment operation_in is not handled $end
$comment operation_out is not handled $end
$var reg 1 ` pw $end
$var reg 1 a iord $end
$var reg 1 b mw $end
$var reg 1 c iw $end
$var reg 1 d dw $end
$var reg 2 e rscrc[1:0] $end
$var reg 1 f m2r $end
$var reg 1 g rw $end
$var reg 1 h aw $end
$var reg 1 i bw $end
$var reg 1 j asrc1 $end
$var reg 2 k asrc2[1:0] $end
$var reg 1 l fset $end
$var reg 1 m rew $end
$var reg 1 n ddpw $end
$var reg 1 o xdpw $end
$comment current_state is not handled $end
$comment next_state is not handled $end
$var reg 4 p debug[3:0] $end
$upscope $end
$scope module idab_reg_label $end
$var reg 1 q clock $end
$var reg 1 r iw $end
$var reg 1 s dw $end
$var reg 1 t aw $end
$var reg 1 u bw $end
$var reg 1 v rew $end
$var reg 32 w i_in[31:0] $end
$var reg 32 x d_in[31:0] $end
$var reg 32 y a_in[31:0] $end
$var reg 32 z b_in[31:0] $end
$var reg 32 { re_in[31:0] $end
$var reg 32 | i_out[31:0] $end
$var reg 32 } d_out[31:0] $end
$var reg 32 !" a_out[31:0] $end
$var reg 32 "" b_out[31:0] $end
$var reg 32 #" re_out[31:0] $end
$var reg 1 $" ddpw $end
$var reg 32 %" ddp_in[31:0] $end
$var reg 32 &" ddp_out[31:0] $end
$var reg 1 '" xdpw $end
$var reg 32 (" xdp_in[31:0] $end
$var reg 32 )" xdp_out[31:0] $end
$var reg 32 *" i[31:0] $end
$var reg 32 +" d[31:0] $end
$var reg 32 ," a[31:0] $end
$var reg 32 -" b[31:0] $end
$var reg 32 ." re[31:0] $end
$var reg 32 /" ddp[31:0] $end
$var reg 32 0" xdp[31:0] $end
$upscope $end
$scope module decoder_label $end
$var reg 32 1" instruction[31:0] $end
$comment instr_class is not handled $end
$comment operation is not handled $end
$comment dp_subclass is not handled $end
$comment dp_operand_src is not handled $end
$comment load_store is not handled $end
$comment dt_offset_sign is not handled $end
$comment cond_code is not handled $end
$var reg 1 2" set_cond $end
$upscope $end
$scope module pc_label $end
$var reg 1 3" clock $end
$var reg 1 4" reset $end
$var reg 1 5" pw $end
$var reg 32 6" p_in[31:0] $end
$var reg 32 7" p_out[31:0] $end
$var reg 32 8" p[31:0] $end
$upscope $end
$scope module data_mem_label $end
$var reg 1 9" clock $end
$var reg 16 :" ad[15:0] $end
$var reg 32 ;" rd[31:0] $end
$var reg 4 <" mw[3:0] $end
$var reg 32 =" wd[31:0] $end
$comment data is not handled $end
$upscope $end
$scope module reg_label $end
$var reg 1 >" clock $end
$var reg 1 ?" write_en $end
$var reg 4 @" r_ad_1[3:0] $end
$var reg 4 A" r_ad_2[3:0] $end
$var reg 4 B" write_1[3:0] $end
$var reg 32 C" data[31:0] $end
$var reg 32 D" r_da_1[31:0] $end
$var reg 32 E" r_da_2[31:0] $end
$comment regs is not handled $end
$var reg 32 F" r0[31:0] $end
$var reg 32 G" r1[31:0] $end
$var reg 32 H" r2[31:0] $end
$var reg 32 I" r3[31:0] $end
$var reg 32 J" r4[31:0] $end
$var reg 32 K" r5[31:0] $end
$var reg 32 L" r6[31:0] $end
$var reg 32 M" r7[31:0] $end
$var reg 32 N" r8[31:0] $end
$var reg 32 O" r9[31:0] $end
$var reg 32 P" r10[31:0] $end
$var reg 32 Q" r11[31:0] $end
$var reg 32 R" r12[31:0] $end
$var reg 32 S" r13[31:0] $end
$var reg 32 T" r14[31:0] $end
$var reg 32 U" r15[31:0] $end
$upscope $end
$scope module alu_label $end
$var reg 32 V" op1[31:0] $end
$var reg 32 W" op2[31:0] $end
$comment op_code is not handled $end
$var reg 1 X" c_in $end
$var reg 1 Y" c_out $end
$var reg 32 Z" res[31:0] $end
$upscope $end
$scope module flag_label $end
$var reg 1 [" f_set $end
$comment op_code is not handled $end
$var reg 1 \" carry $end
$var reg 32 ]" a[31:0] $end
$var reg 32 ^" b[31:0] $end
$var reg 32 _" result[31:0] $end
$var reg 1 `" c_out $end
$var reg 1 a" v_out $end
$var reg 1 b" z_out $end
$var reg 1 c" n_out $end
$upscope $end
$scope module cond_label $end
$var reg 1 d" z $end
$var reg 1 e" c $end
$var reg 1 f" n $end
$var reg 1 g" v $end
$comment cond_code is not handled $end
$var reg 1 h" p $end
$upscope $end
$scope module rotator_label $end
$var reg 32 i" inp[31:0] $end
$var reg 32 j" oup[31:0] $end
$var reg 1 k" rotated_carry $end
$upscope $end
$scope module shifter_label $end
$var reg 32 l" b[31:0] $end
$var reg 32 m" x[31:0] $end
$var reg 32 n" instr[31:0] $end
$var reg 32 o" shifted_out[31:0] $end
$var reg 1 p" carry_out $end
$var integer 32 q" shift_by $end
$upscope $end
$upscope $end
$upscope $end
$enddefinitions $end
#0
0!
0"
0#
0$
0%
b000000000000000000000000 &
b00000000 '
b0000 (
0)
U*
U+
U,
U-
U.
1/
00
01
b0000 2
b00 3
X4
05
06
b01 7
08
19
0:
0;
0<
0=
0>
0?
bUUUUUUUUUUUUUUUUUUUUUUUUUUUUUUUU @
bXXXXXXXXXXXXXXXXXXXXXXXXXXXXXXXX A
bXXXXXXXXXXXXXXXXXXXXXXXXXXXXXXXX B
bUUUUUUUUUUUUUUUUUUUUUUUUUUUUUUUU C
bUUUUUUUUUUUUUUUUUUUUUUUUUUUUUUUU D
bUUUUUUUUUUUUUUUUUUUUUUUUUUUUUUUU E
b00000000000000000000000000000000 F
b00000000000000000000000000000000 G
b00000000000000000000000000000000 H
b00000000000000000000000000000000 I
b00000000000000000000000000000000 J
b00000000000000000000000000000000 K
b00000000000000000000000000000000 L
UM
b00000000000000000000000000000000 N
0O
b11100011101000000000111000110010 P
b0000000000000000 Q
bUUUUUUUUUUUUUUUUUUUUUUUUUUUUUUUU R
b00000000000000000000000000000000 S
b00000000000000000000000000000100 T
b00000000000000000000000000000000 U
b00000000000000000000000000000100 V
b00000000000000000000000000000000 W
UX
b00000000000000000000000000000000 Y
0Z
0[
0\
b00000000000000000000000000000000 ]
U^
0_
1`
0a
0b
1c
0d
b00 e
Xf
0g
0h
0i
0j
b01 k
0l
0m
0n
0o
b0000 p
0q
1r
0s
0t
0u
0v
b11100011101000000000111000110010 w
b11100011101000000000111000110010 x
bXXXXXXXXXXXXXXXXXXXXXXXXXXXXXXXX y
bXXXXXXXXXXXXXXXXXXXXXXXXXXXXXXXX z
b00000000000000000000000000000100 {
b00000000000000000000000000000000 |
b00000000000000000000000000000000 }
b00000000000000000000000000000000 !"
b00000000000000000000000000000000 ""
b00000000000000000000000000000000 #"
0$"
b00000000000000000000000000000000 %"
b00000000000000000000000000000000 &"
0'"
bXXXXXXXXXXXXXXXXXXXXXXXXXXXXXXXX ("
b00000000000000000000000000000000 )"
b00000000000000000000000000000000 *"
b00000000000000000000000000000000 +"
b00000000000000000000000000000000 ,"
b00000000000000000000000000000000 -"
b00000000000000000000000000000000 ."
b00000000000000000000000000000000 /"
b00000000000000000000000000000000 0"
b00000000000000000000000000000000 1"
02"
03"
04"
15"
b00000000000000000000000000000100 6"
b00000000000000000000000000000000 7"
b00000000000000000000000000000000 8"
09"
b0000000000000000 :"
b11100011101000000000111000110010 ;"
b0000 <"
b00000000000000000000000000000000 ="
0>"
0?"
b0000 @"
b0000 A"
b0000 B"
b00000000000000000000000000000000 C"
bXXXXXXXXXXXXXXXXXXXXXXXXXXXXXXXX D"
bXXXXXXXXXXXXXXXXXXXXXXXXXXXXXXXX E"
bXXXXXXXXXXXXXXXXXXXXXXXXXXXXXXXX F"
bXXXXXXXXXXXXXXXXXXXXXXXXXXXXXXXX G"
bXXXXXXXXXXXXXXXXXXXXXXXXXXXXXXXX H"
bXXXXXXXXXXXXXXXXXXXXXXXXXXXXXXXX I"
bXXXXXXXXXXXXXXXXXXXXXXXXXXXXXXXX J"
bXXXXXXXXXXXXXXXXXXXXXXXXXXXXXXXX K"
bXXXXXXXXXXXXXXXXXXXXXXXXXXXXXXXX L"
bXXXXXXXXXXXXXXXXXXXXXXXXXXXXXXXX M"
bXXXXXXXXXXXXXXXXXXXXXXXXXXXXXXXX N"
bXXXXXXXXXXXXXXXXXXXXXXXXXXXXXXXX O"
bXXXXXXXXXXXXXXXXXXXXXXXXXXXXXXXX P"
bXXXXXXXXXXXXXXXXXXXXXXXXXXXXXXXX Q"
bXXXXXXXXXXXXXXXXXXXXXXXXXXXXXXXX R"
bXXXXXXXXXXXXXXXXXXXXXXXXXXXXXXXX S"
bXXXXXXXXXXXXXXXXXXXXXXXXXXXXXXXX T"
bXXXXXXXXXXXXXXXXXXXXXXXXXXXXXXXX U"
b00000000000000000000000000000000 V"
b00000000000000000000000000000100 W"
UX"
0Y"
b00000000000000000000000000000100 Z"
0["
0\"
b00000000000000000000000000000000 ]"
b00000000000000000000000000000100 ^"
b00000000000000000000000000000100 _"
U`"
Ua"
Ub"
Uc"
Ud"
Ue"
Uf"
Ug"
Uh"
b00000000000000000000000000000000 i"
b00000000000000000000000000000000 j"
Uk"
b00000000000000000000000000000000 l"
b00000000000000000000000000000000 m"
b00000000000000000000000000000000 n"
b00000000000000000000000000000000 o"
0p"
b0 q"
#1000000
1!
1#
b0010 (
1.
0/
X6
bXX 7
09
1;
1<
b11100011101000000000111000110010 F
b00000000000000000000000000000100 N
b11100011101000000001000010101010 P
b0000000000000001 Q
b00000010100000000011100011001100 T
b00000010100000000011100011001100 V
b00000000000000000000001100100000 W
XZ
1\
b11100011101000000000111000110010 ]
1^
0`
0c
1h
1i
Xj
bXX k
b0001 p
1q
0r
1t
1u
b11100011101000000001000010101010 w
b11100011101000000001000010101010 x
b00000010100000000011100011001100 {
b11100011101000000000111000110010 |
b11100011101000000000111000110010 *"
b11100011101000000000111000110010 1"
13"
05"
b00000010100000000011100011001100 6"
b00000000000000000000000000000100 7"
b00000000000000000000000000000100 8"
19"
b0000000000000001 :"
b11100011101000000001000010101010 ;"
1>"
b0010 A"
b00000010100000000011100011001100 W"
b00000010100000000011100011001100 Z"
b00000010100000000011100011001100 ^"
b00000010100000000011100011001100 _"
1h"
b11100011101000000000111000110010 i"
b00000000000000000000001100100000 j"
b11100011101000000000111000110010 n"
Xp"
#2000000
#6000000
0!
0#
0\
0q
03"
09"
0>"
#11000000
1!
1#
16
b10 7
0;
0<
1=
bXXXXXXXXXXXXXXXXXXXXXXXXXXXXXXXX H
bXXXXXXXXXXXXXXXXXXXXXXXXXXXXXXXX I
b00000000000000000000001100100000 T
bXXXXXXXXXXXXXXXXXXXXXXXXXXXXXXXX U
b00000000000000000000001100100000 V
bXXXXXXXXXXXXXXXXXXXXXXXXXXXXXXXX Y
1\
0h
0i
1j
b10 k
1m
b0111 p
1q
0t
0u
1v
b00000000000000000000001100100000 {
bXXXXXXXXXXXXXXXXXXXXXXXXXXXXXXXX !"
bXXXXXXXXXXXXXXXXXXXXXXXXXXXXXXXX ""
bXXXXXXXXXXXXXXXXXXXXXXXXXXXXXXXX %"
bXXXXXXXXXXXXXXXXXXXXXXXXXXXXXXXX ,"
bXXXXXXXXXXXXXXXXXXXXXXXXXXXXXXXX -"
13"
b00000000000000000000001100100000 6"
19"
bXXXXXXXXXXXXXXXXXXXXXXXXXXXXXXXX ="
1>"
bXXXXXXXXXXXXXXXXXXXXXXXXXXXXXXXX V"
b00000000000000000000001100100000 W"
b00000000000000000000001100100000 Z"
bXXXXXXXXXXXXXXXXXXXXXXXXXXXXXXXX ]"
b00000000000000000000001100100000 ^"
b00000000000000000000001100100000 _"
bXXXXXXXXXXXXXXXXXXXXXXXXXXXXXXXX l"
bXXXXXXXXXXXXXXXXXXXXXXXXXXXXXXXX o"
#16000000
0!
0#
0\
0q
03"
09"
0>"
#21000000
1!
1#
04
15
X6
bXX 7
0=
b00000000000000000000001100100000 J
b00000000000000000000001100100000 S
b00000010100000000011100011001100 T
b00000010100000000011100011001100 V
1\
0f
1g
Xj
bXX k
0m
b1000 p
1q
0v
b00000010100000000011100011001100 {
b00000000000000000000001100100000 #"
b00000000000000000000001100100000 ."
13"
b00000010100000000011100011001100 6"
19"
1>"
1?"
b00000000000000000000001100100000 C"
b00000010100000000011100011001100 W"
b00000010100000000011100011001100 Z"
b00000010100000000011100011001100 ^"
b00000010100000000011100011001100 _"
#26000000
0!
0#
0\
0q
03"
09"
0>"
#31000000
1!
1#
0)
1/
X4
05
06
b01 7
19
b00000000000000000000001100100000 A
b00000000000000000000000000000100 T
b00000000000000000000000000000100 U
b00000000000000000000000000001000 V
1\
1`
1c
Xf
0g
0j
b01 k
b0000 p
1q
1r
b00000000000000000000001100100000 y
b00000000000000000000000000001000 {
13"
15"
b00000000000000000000000000001000 6"
19"
1>"
0?"
b00000000000000000000001100100000 D"
b00000000000000000000001100100000 F"
b00000000000000000000000000000100 V"
b00000000000000000000000000000100 W"
0Y"
b00000000000000000000000000001000 Z"
0\"
b00000000000000000000000000000100 ]"
b00000000000000000000000000000100 ^"
b00000000000000000000000000001000 _"
#36000000
0!
0#
0\
0q
03"
09"
0>"
#41000000
1!
1#
b1010 (
0/
X6
bXX 7
09
1;
1<
b11100011101000000001000010101010 F
b00000000000000000000000000001000 N
b11100011101000000010000000000100 P
b0000000000000010 Q
b00000010100000000100001010101100 T
bXXXXXXXXXXXXXXXXXXXXXXXXXXXXXXXX U
b00000010100000000100001010101100 V
b00000000000000000000000010101010 W
b0XXXXXXXXXXXXXXXXXXXXXXXXXXXXXXX Y
1\
b11100011101000000001000010101010 ]
0`
0c
1h
1i
Xj
bXX k
b0001 p
1q
0r
1t
1u
b11100011101000000010000000000100 w
b11100011101000000010000000000100 x
b00000010100000000100001010101100 {
b11100011101000000001000010101010 |
b0XXXXXXXXXXXXXXXXXXXXXXXXXXXXXXX %"
b11100011101000000001000010101010 *"
b11100011101000000001000010101010 1"
13"
05"
b00000010100000000100001010101100 6"
b00000000000000000000000000001000 7"
b00000000000000000000000000001000 8"
19"
b0000000000000010 :"
b11100011101000000010000000000100 ;"
1>"
b1010 A"
b0001 B"
bXXXXXXXXXXXXXXXXXXXXXXXXXXXXXXXX V"
b00000010100000000100001010101100 W"
b00000010100000000100001010101100 Z"
bXXXXXXXXXXXXXXXXXXXXXXXXXXXXXXXX ]"
b00000010100000000100001010101100 ^"
b00000010100000000100001010101100 _"
b11100011101000000001000010101010 i"
b00000000000000000000000010101010 j"
b11100011101000000001000010101010 n"
b0XXXXXXXXXXXXXXXXXXXXXXXXXXXXXXX o"
b1 q"
#46000000
0!
0#
0\
0q
03"
09"
0>"
#51000000
1!
1#
16
b10 7
0;
0<
1=
b00000000000000000000001100100000 H
b00000000000000000000000010101010 T
b00000000000000000000001100100000 U
b00000000000000000000000010101010 V
1\
0h
0i
1j
b10 k
1m
b0111 p
1q
0t
0u
1v
b00000000000000000000000010101010 {
b00000000000000000000001100100000 !"
b00000000000000000000001100100000 ,"
13"
b00000000000000000000000010101010 6"
19"
1>"
b00000000000000000000001100100000 V"
b00000000000000000000000010101010 W"
b00000000000000000000000010101010 Z"
b00000000000000000000001100100000 ]"
b00000000000000000000000010101010 ^"
b00000000000000000000000010101010 _"
#56000000
0!
0#
0\
0q
03"
09"
0>"
#61000000
1!
1#
04
15
X6
bXX 7
0=
b00000000000000000000000010101010 J
b00000000000000000000000010101010 S
b00000010100000000100001010101100 T
b00000010100000000100001010101100 V
1\
0f
1g
Xj
bXX k
0m
b1000 p
1q
0v
b00000010100000000100001010101100 {
b00000000000000000000000010101010 #"
b00000000000000000000000010101010 ."
13"
b00000010100000000100001010101100 6"
19"
1>"
1?"
b00000000000000000000000010101010 C"
b00000010100000000100001010101100 W"
b00000010100000000100001010101100 Z"
b00000010100000000100001010101100 ^"
b00000010100000000100001010101100 _"
#66000000
0!
0#
0\
0q
03"
09"
0>"
#71000000
1!
1#
1/
X4
05
06
b01 7
19
b00000000000000000000000000000100 T
b00000000000000000000000000001000 U
b00000000000000000000000000001100 V
1\
1`
1c
Xf
0g
0j
b01 k
b0000 p
1q
1r
b00000000000000000000000000001100 {
13"
15"
b00000000000000000000000000001100 6"
19"
1>"
0?"
b00000000000000000000000010101010 G"
b00000000000000000000000000001000 V"
b00000000000000000000000000000100 W"
b00000000000000000000000000001100 Z"
b00000000000000000000000000001000 ]"
b00000000000000000000000000000100 ^"
b00000000000000000000000000001100 _"
#76000000
0!
0#
0\
0q
03"
09"
0>"
#81000000
1!
1#
b0100 (
0/
X6
bXX 7
09
1;
1<
b11100011101000000010000000000100 F
b00000000000000000000000000001100 N
b11100000100000000011000100000001 P
b0000000000000011 Q
b00000010100000001000000000010100 T
b00000000000000000000001100100000 U
b00000010100000001000000000010100 V
b00000000000000000000000000000100 W
bXXXXXXXXXXXXXXXXXXXXXXXXXXXXXXXX Y
1\
b11100011101000000010000000000100 ]
0`
0c
1h
1i
Xj
bXX k
b0001 p
1q
0r
1t
1u
b11100000100000000011000100000001 w
b11100000100000000011000100000001 x
b00000010100000001000000000010100 {
b11100011101000000010000000000100 |
bXXXXXXXXXXXXXXXXXXXXXXXXXXXXXXXX %"
b11100011101000000010000000000100 *"
b11100011101000000010000000000100 1"
13"
05"
b00000010100000001000000000010100 6"
b00000000000000000000000000001100 7"
b00000000000000000000000000001100 8"
19"
b0000000000000011 :"
b11100000100000000011000100000001 ;"
1>"
b0100 A"
b0010 B"
b00000000000000000000001100100000 V"
b00000010100000001000000000010100 W"
b00000010100000001000000000010100 Z"
b00000000000000000000001100100000 ]"
b00000010100000001000000000010100 ^"
b00000010100000001000000000010100 _"
b11100011101000000010000000000100 i"
b00000000000000000000000000000100 j"
b11100011101000000010000000000100 n"
bXXXXXXXXXXXXXXXXXXXXXXXXXXXXXXXX o"
b0 q"
#86000000
0!
0#
0\
0q
03"
09"
0>"
#91000000
1!
1#
16
b10 7
0;
0<
1=
b00000000000000000000000000000100 T
b00000000000000000000000000000100 V
1\
0h
0i
1j
b10 k
1m
b0111 p
1q
0t
0u
1v
b00000000000000000000000000000100 {
13"
b00000000000000000000000000000100 6"
19"
1>"
b00000000000000000000000000000100 W"
b00000000000000000000000000000100 Z"
b00000000000000000000000000000100 ^"
b00000000000000000000000000000100 _"
#96000000
0!
0#
0\
0q
03"
09"
0>"
#101000000
1!
1#
04
15
X6
bXX 7
0=
b00000000000000000000000000000100 J
b00000000000000000000000000000100 S
b00000010100000001000000000010100 T
b00000010100000001000000000010100 V
1\
0f
1g
Xj
bXX k
0m
b1000 p
1q
0v
b00000010100000001000000000010100 {
b00000000000000000000000000000100 #"
b00000000000000000000000000000100 ."
13"
b00000010100000001000000000010100 6"
19"
1>"
1?"
b00000000000000000000000000000100 C"
b00000010100000001000000000010100 W"
b00000010100000001000000000010100 Z"
b00000010100000001000000000010100 ^"
b00000010100000001000000000010100 _"
#106000000
0!
0#
0\
0q
03"
09"
0>"
#111000000
1!
1#
1/
X4
05
06
b01 7
19
b00000000000000000000000000000100 T
b00000000000000000000000000001100 U
b00000000000000000000000000010000 V
1\
1`
1c
Xf
0g
0j
b01 k
b0000 p
1q
1r
b00000000000000000000000000010000 {
13"
15"
b00000000000000000000000000010000 6"
19"
1>"
0?"
b00000000000000000000000000000100 H"
b00000000000000000000000000001100 V"
b00000000000000000000000000000100 W"
b00000000000000000000000000010000 Z"
b00000000000000000000000000001100 ]"
b00000000000000000000000000000100 ^"
b00000000000000000000000000010000 _"
#116000000
0!
0#
0\
0q
03"
09"
0>"
#121000000
1!
1#
b0001 (
0/
X6
bXX 7
09
1;
1<
b00000000000000000000000010101010 B
b11100000100000000011000100000001 F
b00000000000000000000000000010000 N
b11100000100000000100000100100001 P
b0000000000000100 Q
b00000010000000001100010000001000 T
b00000000000000000000001100100000 U
b00000010000000001100011100101000 V
b01000000000000000000000000000000 W
bXXXXXXXXXXXXXXXXXXXXXXXXXXXXXX00 Y
1\
b11100000100000000011000100000001 ]
0`
0c
1h
1i
Xj
bXX k
b0001 p
1q
0r
1t
1u
b11100000100000000100000100100001 w
b11100000100000000100000100100001 x
b00000000000000000000000010101010 z
b00000010000000001100011100101000 {
b11100000100000000011000100000001 |
bXXXXXXXXXXXXXXXXXXXXXXXXXXXXXX00 %"
b00000000000000000000000010101010 ("
b11100000100000000011000100000001 *"
b11100000100000000011000100000001 1"
13"
05"
b00000010000000001100011100101000 6"
b00000000000000000000000000010000 7"
b00000000000000000000000000010000 8"
19"
b0000000000000100 :"
b11100000100000000100000100100001 ;"
1>"
b0001 A"
b0011 B"
b00000000000000000000000010101010 E"
b00000000000000000000001100100000 V"
b00000010000000001100010000001000 W"
b00000010000000001100011100101000 Z"
b00000000000000000000001100100000 ]"
b00000010000000001100010000001000 ^"
b00000010000000001100011100101000 _"
b11100000100000000011000100000001 i"
b01000000000000000000000000000000 j"
b11100000100000000011000100000001 n"
bXXXXXXXXXXXXXXXXXXXXXXXXXXXXXX00 o"
b10 q"
#126000000
0!
0#
0\
0q
03"
09"
0>"
#131000000
1!
1#
0;
0<
1?
b00000000000000000000000010101010 I
b00000000000000000000001010101000 Y
0Z
1\
0h
0i
1n
1q
0t
0u
b00000000000000000000000010101010 ""
1$"
b00000000000000000000001010101000 %"
b00000000000000000000000010101010 -"
13"
19"
b00000000000000000000000010101010 ="
1>"
b00000000000000000000000010101010 l"
b00000000000000000000001010101000 o"
0p"
#136000000
0!
0#
0\
0q
03"
09"
0>"
#141000000
1!
1#
16
b00 7
1=
0?
b00000000000000000000001010101000 K
b00000000000000000000001010101000 T
b00000000000000000000010111001000 V
1\
1j
b00 k
1m
0n
b0111 p
1q
1v
b00000000000000000000010111001000 {
0$"
b00000000000000000000001010101000 &"
b00000000000000000000001010101000 /"
13"
b00000000000000000000010111001000 6"
19"
1>"
b00000000000000000000001010101000 W"
b00000000000000000000010111001000 Z"
b00000000000000000000001010101000 ^"
b00000000000000000000010111001000 _"
#146000000
0!
0#
0\
0q
03"
09"
0>"
#151000000
1!
1#
04
15
X6
bXX 7
0=
b00000000000000000000010111001000 J
b00000000000000000000010111001000 S
b00000010000000001100010000001000 T
b00000010000000001100011100101000 V
1\
0f
1g
Xj
bXX k
0m
b1000 p
1q
0v
b00000010000000001100011100101000 {
b00000000000000000000010111001000 #"
b00000000000000000000010111001000 ."
13"
b00000010000000001100011100101000 6"
19"
1>"
1?"
b00000000000000000000010111001000 C"
b00000010000000001100010000001000 W"
b00000010000000001100011100101000 Z"
b00000010000000001100010000001000 ^"
b00000010000000001100011100101000 _"
#156000000
0!
0#
0\
0q
03"
09"
0>"
#161000000
1!
1#
1/
X4
05
06
b01 7
19
b00000000000000000000000000000100 T
b00000000000000000000000000010000 U
b00000000000000000000000000010100 V
1\
1`
1c
Xf
0g
0j
b01 k
b0000 p
1q
1r
b00000000000000000000000000010100 {
13"
15"
b00000000000000000000000000010100 6"
19"
1>"
0?"
b00000000000000000000010111001000 I"
b00000000000000000000000000010000 V"
b00000000000000000000000000000100 W"
b00000000000000000000000000010100 Z"
b00000000000000000000000000010000 ]"
b00000000000000000000000000000100 ^"
b00000000000000000000000000010100 _"
#166000000
0!
0#
0\
0q
03"
09"
0>"
#171000000
1!
1#
0/
X6
bXX 7
09
1;
1<
b11100000100000000100000100100001 F
b00000000000000000000000000010100 N
b11100000100000000101000101000001 P
b0000000000000101 Q
b00000010000000010000010010001000 T
b00000000000000000000001100100000 U
b00000010000000010000011110101000 V
b01000000000000000000000000001000 W
b00000000000000000000000000101010 Y
1Z
1\
b11100000100000000100000100100001 ]
0`
0c
1h
1i
Xj
bXX k
b0001 p
1q
0r
1t
1u
b11100000100000000101000101000001 w
b11100000100000000101000101000001 x
b00000010000000010000011110101000 {
b11100000100000000100000100100001 |
b00000000000000000000000000101010 %"
b11100000100000000100000100100001 *"
b11100000100000000100000100100001 1"
13"
05"
b00000010000000010000011110101000 6"
b00000000000000000000000000010100 7"
b00000000000000000000000000010100 8"
19"
b0000000000000101 :"
b11100000100000000101000101000001 ;"
1>"
b0100 B"
b00000000000000000000001100100000 V"
b00000010000000010000010010001000 W"
b00000010000000010000011110101000 Z"
b00000000000000000000001100100000 ]"
b00000010000000010000010010001000 ^"
b00000010000000010000011110101000 _"
b11100000100000000100000100100001 i"
b01000000000000000000000000001000 j"
b11100000100000000100000100100001 n"
b00000000000000000000000000101010 o"
1p"
#176000000
0!
0#
0\
0q
03"
09"
0>"
#181000000
1!
1#
0;
0<
1?
1\
0h
0i
1n
1q
0t
0u
1$"
13"
19"
1>"
#186000000
0!
0#
0\
0q
03"
09"
0>"
#191000000
1!
1#
16
b00 7
1=
0?
b00000000000000000000000000101010 K
b00000000000000000000000000101010 T
b00000000000000000000001101001010 V
1\
1j
b00 k
1m
0n
b0111 p
1q
1v
b00000000000000000000001101001010 {
0$"
b00000000000000000000000000101010 &"
b00000000000000000000000000101010 /"
13"
b00000000000000000000001101001010 6"
19"
1>"
b00000000000000000000000000101010 W"
b00000000000000000000001101001010 Z"
b00000000000000000000000000101010 ^"
b00000000000000000000001101001010 _"
#196000000
0!
0#
0\
0q
03"
09"
0>"
#201000000
1!
1#
04
15
X6
bXX 7
0=
b00000000000000000000001101001010 J
b00000000000000000000001101001010 S
b00000010000000010000010010001000 T
b00000010000000010000011110101000 V
1\
0f
1g
Xj
bXX k
0m
b1000 p
1q
0v
b00000010000000010000011110101000 {
b00000000000000000000001101001010 #"
b00000000000000000000001101001010 ."
13"
b00000010000000010000011110101000 6"
19"
1>"
1?"
b00000000000000000000001101001010 C"
b00000010000000010000010010001000 W"
b00000010000000010000011110101000 Z"
b00000010000000010000010010001000 ^"
b00000010000000010000011110101000 _"
#206000000
0!
0#
0\
0q
03"
09"
0>"
#211000000
1!
1#
1/
X4
05
06
b01 7
19
b00000000000000000000000000000100 T
b00000000000000000000000000010100 U
b00000000000000000000000000011000 V
1\
1`
1c
Xf
0g
0j
b01 k
b0000 p
1q
1r
b00000000000000000000000000011000 {
13"
15"
b00000000000000000000000000011000 6"
19"
1>"
0?"
b00000000000000000000001101001010 J"
b00000000000000000000000000010100 V"
b00000000000000000000000000000100 W"
b00000000000000000000000000011000 Z"
b00000000000000000000000000010100 ]"
b00000000000000000000000000000100 ^"
b00000000000000000000000000011000 _"
#216000000
0!
0#
0\
0q
03"
09"
0>"
